[
    {
        "character":"av",
        "emote":"phone_sweating",
        "speak":"Oh uh... Okay, sure.",
        "scene":"street_split",
        "guest":{
          "order":1,
          "character":"nv",
          "emote":"phone_idle"
        }
    },
    {
        "character":"nv",
        "emote":"phone_happy_speak",
        "speak":"Awesome! Hang around the store for a little bit, I'll be there soon!",
        "scene":"street_split",
        "guest":{
          "order":0,
          "character":"av",
          "emote":"phone_sweating_idle"
        }
    },
    {
        "character":"av",
        "speak":"*beep*",
        "name_override":"Phone",
        "scene":"street_closed",
        "emote":"dial_sweating"
    },
    {
        "character":"av",
        "speak":"phew...",
        "scene":"street_closed",
        "emote":"exhale_phone"
    },
    {
        "character":"av",
        "speak":"...",
        "scene":"street_closed",
        "emote":"phone_pocket"
    },
    {
        "character":"av",
        "speak":"Man, she probably thinks I'm a total dolt now...",
        "scene":"street_closed",
        "emote":"anxious"
    },
    {
        "character":"av",
        "speak":"What do I even do now, its not like its not gonna be awkward.",
        "scene":"street_closed",
        "emote":"anxious"
    },
    {
        "character":"av",
        "speak":"...",
        "scene":"street_closed",
        "emote":"neutral"
    },
    {
        "character":"av",
        "speak":"That cat meme I saw yesterday was pretty funny tho...",
        "scene":"street_closed",
        "emote":"smirk"
    },
    {
        "character":"av",
        "speak":"...",
        "scene":"street_closed",
        "emote":"thinking"
    },
    {
        "character":"av",
        "speak":"Wonder what that dream was all about...",
        "scene":"street_closed",
        "emote":"thinking"
    },
    {
       "affected":true,
       "sysvarCheck":"friends",
       "sysvarResults":{
            "yes":{
                "character":"av",
                "speak":"What an interesting fellow.",
                "scene":"street_closed",
                "emote":"thinking"
            },
            "no":{
                "character":"av",
                "speak":"What a creepy weirdo.",
                "scene":"street_closed",
                "emote":"thinking"
            }
       }
    },
    {
        "character":"av",
        "speak":"That ghost guy...",
        "scene":"street_closed",
        "emote":"thinking"
    },
    {
        "character":"av",
        "speak":"EEEEEEK!!!",
        "scene":"blank_black"
    },
    {
        "character":"nv",
        "speak":"Guess who?",
        "scene":"street_hidden"
    },
    {
        "character":"av",
        "speak":"Aw come on Nav, you scared the crap out of me!",
        "scene":"street_hidden"
    },
    {
        "character":"nv",
        "speak":"Aww, really? You're such a scaredy-cat, you!",
        "scene":"street_hidden"
    },
    {
        "character":"av",
        "speak":"Let me go, Nav, I'm already half-blind as is.",
        "scene":"street_hidden"
    },
    {
        "character":"av",
        "emote":"panicked_blurry",
        "speak":"Its kinda rude to- AAAAH!",
        "scene":"street_blurry",
        "guest":{
          "order":1,
          "character":"ns",
          "emote":"default"
        }
    },
    {
        "character":"nv",
        "emote":"arms_confused_speak",
        "speak":"You alright, Ave?",
        "scene":"street_closed",
        "guest":{
          "order":0,
          "character":"av",
          "emote":"panicked"
        }
    },
    {
        "character":"av",
        "emote":"frightened",
        "speak":"Y-y-yeah, I-I-I'm okay...",
        "scene":"street_closed",
        "guest":{
          "order":1,
          "character":"nv",
          "emote":"arms_confused"
        }
    },
    {
        "character":"nv",
        "emote":"arms_smug_speak",
        "speak":"What on earth is with you today?",
        "scene":"street_closed",
        "guest":{
          "order":0,
          "character":"av",
          "emote":"tense"
        }
    },
    {
        "character":"av",
        "emote":"blush_speak",
        "speak":"I... um- just haven't had my morning coffee yet.",
        "scene":"street_closed",
        "guest":{
          "order":1,
          "character":"nv",
          "emote":"arms_smug"
        }
    },
    {
        "character":"nv",
        "emote":"pockets_smug_speak",
        "speak":"Ah, so you are a javaphile, huh?",
        "scene":"street_closed",
        "guest":{
          "order":0,
          "character":"av",
          "emote":"blush"
        }
    },
    {
        "character":"nv",
        "emote":"pockets_speak",
        "speak":"Very well then, whats your favorite kind?",
        "scene":"street_closed",
        "guest":{
          "order":0,
          "character":"av",
          "emote":"blush_sweat"
        }
    },
    {
        "character":"av",
        "emote":"blush_speak",
        "speak":"Uuuuh...",
        "scene":"street_closed",
        "guest":{
          "order":1,
          "character":"nv",
          "emote":"pockets"
        },
        "choices":[
             {
                "option":"Mocca",
                 "sysvar":[
                    {
                       "name":"coffee",
                       "value":"mocca"
                    }
                 ]
             },
             {
                "option":"Cappucino",
                 "sysvar":[
                    {
                       "name":"coffee",
                       "value":"cappucino"
                    }
                 ]
             },
             {
                "option":"Espresso",
                 "sysvar":[
                    {
                       "name":"coffee",
                       "value":"espresso"
                    }
                 ]
             }
        ]
    },
    {
       "affected":true,
       "sysvarCheck":"coffee",
       "sysvarResults":{
          "mocca":{
            "character":"av",
            "emote":"blush_speak",
            "speak":"Um, uuh... m-moc-ca... s-sin?...",
            "scene":"street_closed",
            "guest":{
              "order":1,
              "character":"nv",
              "emote":"pockets"
            }
          },
          "cappucino":{
            "character":"av",
            "emote":"blush_speak",
            "speak":"Uuuuh... cup... of... um... chino?...",
            "scene":"street_closed",
            "guest":{
              "order":1,
              "character":"nv",
              "emote":"pockets"
            }
          },
          "espresso":{
            "character":"av",
            "emote":"blush_speak",
            "speak":"Um, e-express... so?...",
            "scene":"street_closed",
            "guest":{
              "order":1,
              "character":"nv",
              "emote":"pockets"
            }
          }
       }
    },
    {
        "character":"nv",
        "emote":"arms_confused",
        "speak":"...?",
        "scene":"street_closed",
        "guest":{
          "order":0,
          "character":"av",
          "emote":"blush"
        }
    },
    {
       "affected":true,
       "sysvarCheck":"coffee",
       "sysvarResults":{
          "mocca":{
            "character":"nv",
            "emote":"arms_smug_speak",
            "speak":"Well, I don't have a cup of \"moccasin\" on me, buuut...",
            "scene":"street_closed",
            "guest":{
              "order":0,
              "character":"av",
              "emote":"blush_sweat"
            }
          },
          "cappucino":{
            "character":"nv",
            "emote":"arms_smug_speak",
            "speak":"Well, I don't have a \"cup-of-chino\" on me, buuut...",
            "scene":"street_closed",
            "guest":{
              "order":0,
              "character":"av",
              "emote":"blush_sweat"
            }
          },
          "espresso":{
            "character":"nv",
            "emote":"arms_smug_speak",
            "speak":"Well, I don't have a cup of \"expresso\" on me, buuut...",
            "scene":"street_closed",
            "guest":{
              "order":0,
              "character":"av",
              "emote":"blush_sweat"
            }
          }
       }
    },
    {
        "character":"nv",
        "emote":"pockets_speak",
        "speak":"A cool new coffee joint just opened up right around the corner here.",
        "scene":"street_closed",
        "guest":{
          "order":0,
          "character":"av",
          "emote":"blush"
        }
    },
    {
        "character":"nv",
        "emote":"smug_speak",
        "speak":"And I am taking you with me!",
        "scene":"street_closed",
        "guest":{
          "order":0,
          "character":"av",
          "emote":"blush_sweat"
        }
    },
    {
        "character":"p",
        "scene":"blank_black"
    },
    {
        "character":"nv",
        "emote":"coffee_speak",
        "speak":"Come on, give it a sip, it doesn't bite.",
        "scene":"blank_white",
        "guest":{
          "order":0,
          "character":"av",
          "emote":"holding_cup"
        }
    },
    {
        "character":"av",
        "emote":"test",
        "speak":"...",
        "scene":"blank_white",
        "guest":{
          "order":1,
          "character":"nv",
          "emote":"coffee"
        }
    }
]